{
  "web": {
    "client_id": "148093370720-f24dghceuag62qu8jmjl3p1mjdca1sra.apps.googleusercontent.com",
    "project_id": "ogo-live-prod",
    "auth_uri": "https://accounts.google.com/o/oauth2/auth",
    "token_uri": "https://oauth2.googleapis.com/token",
    "auth_provider_x509_cert_url": "https://www.googleapis.com/oauth2/v1/certs",
    "client_secret": "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",
    "redirect_uris": [
      "http://localhost:2024/api/v1/shop/config-livestream/goolge/callback",
      "https://api.ogogroup.info/api/v1/shop/config-livestream/goolge/callback"
    ],
    "javascript_origins": ["http://localhost:2024", "https://api.ogogroup.info"]
  }
}
